<svg version="1.1" xmlns="http://www.w3.org/2000/svg" xmlns:xlink="http://www.w3.org/1999/xlink" x="0px" y="0px"
	 viewBox="0 0 512 512" style="enable-background:new 0 0 512 512;" xml:space="preserve">
	<g>
		<path d="M393.604,280h-0.131c-5.523,0-10,4.477-10,10s4.477,10,10,10h0.131c5.523,0,10-4.477,10-10S399.127,280,393.604,280z"/>
	</g>
	<g>
		<path d="M448.087,155.397l-3.152-6.55V51.576c0-14.964-12.174-27.138-27.139-27.138c-14.964,0-27.138,12.174-27.138,27.138v46.025
			c-2.276-0.621-4.668-0.959-7.138-0.959c-6.495,0-12.462,2.296-17.138,6.115c-4.677-3.819-10.644-6.115-17.139-6.115
			c-2.47,0-4.862,0.338-7.138,0.959V27.138C342.105,12.174,329.931,0,314.967,0s-27.138,12.174-27.138,27.138v141.994l-9.205,11.839
			c-5.672,7.294-8.795,16.4-8.795,25.641v16.025c0,14.869,5.764,28.874,16.23,39.435l29.793,30.065V502c0,5.523,4.477,10,10,10
			s10-4.477,10-10V300h25.27c5.523,0,10-4.477,10-10s-4.477-10-10-10h-29.14l-31.717-32.006
			c-6.73-6.791-10.436-15.796-10.436-25.357v-16.025c0-4.816,1.628-9.562,4.584-13.364l13.231-17.018h57.4
			c2.981,0,5.406,2.425,5.406,5.405s-2.425,5.405-5.406,5.405h-46.557c-3.715,0-7.124,2.06-8.852,5.348
			c-1.729,3.289-1.491,7.265,0.617,10.324l5.799,8.42v24.205c0,5.523,4.477,10,10,10s10-4.477,10-10v-27.315
			c0-0.329-0.016-0.656-0.048-0.981h29.041c6.264,0,12.002-2.283,16.436-6.055c0.678,0.051,1.358,0.078,2.04,0.078
			c14.964,0,27.138-12.174,27.138-27.139v-22.796V123.78V51.576c0-3.936,3.202-7.138,7.138-7.138c3.936,0,7.139,3.202,7.139,7.138
			v99.552c0,1.501,0.338,2.983,0.989,4.336l4.141,8.606c3.771,7.835,5.764,16.573,5.764,25.269v48.489
			c0,6.222-1.064,12.348-3.164,18.206l-10.253,28.615c-0.388,1.083-0.586,2.224-0.586,3.374V502c0,5.523,4.477,10,10,10
			s10-4.477,10-10V289.759l9.667-26.979c2.877-8.029,4.336-16.424,4.336-24.953v-48.489
			C455.829,177.659,453.151,165.922,448.087,155.397z M322.105,123.78v25.312v7.138h-14.276V27.138c0-3.936,3.202-7.138,7.138-7.138
			c3.936,0,7.138,3.202,7.138,7.138V123.78z M356.382,149.092v7.138h-14.277v-7.138V123.78c0-3.936,3.202-7.138,7.139-7.138
			c3.936,0,7.138,3.202,7.138,7.138V149.092z M390,176.899c-1.494-7.889-6.644-14.496-13.619-17.99v-9.818V123.78
			c0-3.936,3.202-7.138,7.138-7.138c3.936,0,7.138,3.202,7.138,7.138v27.348v22.796h0.001
			C390.658,174.987,390.418,175.992,390,176.899z"/>
	</g>
	<g>
		<path d="M236.223,264.958l-10.569-13.572V108.29c0-15.037-12.233-27.27-27.27-27.27c-15.037,0-27.27,12.233-27.27,27.27v71.105
			c-2.316-0.642-4.752-0.992-7.27-0.992c-6.548,0-12.564,2.322-17.27,6.183c-4.706-3.861-10.722-6.183-17.27-6.183
			c-2.518,0-4.954,0.35-7.27,0.992v-46.48c0-15.037-12.233-27.27-27.27-27.27s-27.27,12.233-27.27,27.27v97.972l-4.592,9.251
			c-4.403,8.871-6.731,18.795-6.731,28.698v54.873c0,6.562,1.161,13.007,3.452,19.157l11.213,30.111V502c0,5.523,4.477,10,10,10
			s10-4.477,10-10V381.667h26.681c5.523,0,10-4.477,10-10s-4.477-10-10-10H87.966l-9.6-25.779c-1.456-3.91-2.194-8.007-2.194-12.178
			v-54.873c0-6.835,1.606-13.684,4.645-19.806l5.635-11.353c0.686-1.382,1.043-2.904,1.043-4.446V132.915
			c0-4.009,3.261-7.27,7.27-7.27c4.009,0,7.27,3.261,7.27,7.27v72.758v27.559v22.971c0,15.037,12.233,27.27,27.27,27.27
			c0.696,0,1.39-0.029,2.081-0.082c4.458,3.802,10.232,6.105,16.537,6.105h29.35c-0.038,0.353-0.057,0.708-0.057,1.066v27.525
			c0,5.523,4.477,10,10,10s10-4.477,10-10v-24.414l5.857-8.504c2.107-3.06,2.345-7.035,0.617-10.324
			c-1.728-3.289-5.137-5.348-8.852-5.348h-46.915c-3.045,0-5.523-2.478-5.523-5.524c0-3.046,2.478-5.523,5.523-5.523h57.884
			l14.637,18.796c2.184,2.804,3.386,6.305,3.386,9.859v26.448c0,4.238-1.723,8.383-4.727,11.373l-39.349,39.163
			c-1.886,1.877-2.946,4.428-2.946,7.088V502c0,5.523,4.477,10,10,10s10-4.477,10-10V375.332l36.403-36.231
			c6.748-6.716,10.618-16.028,10.618-25.548v-26.448C243.829,279.122,241.127,271.256,236.223,264.958z M136.574,231.179v9.94
			c-7.097,3.539-12.32,10.284-13.766,18.329c-0.491-0.978-0.774-2.078-0.774-3.245v-22.971v-27.559c0-4.009,3.261-7.27,7.27-7.27
			c4.009,0,7.27,3.261,7.27,7.27V231.179z M171.114,231.179v7.27h-14.54v-7.27v-25.506c0-4.008,3.261-7.27,7.27-7.27
			c4.009,0,7.27,3.261,7.27,7.27V231.179z M205.654,238.45h-14.54v-7.27v-25.506V108.29c0-4.009,3.261-7.27,7.27-7.27
			c4.009,0,7.27,3.261,7.27,7.27V238.45z"/>
	</g>
</svg>
