<?xml version="1.0" standalone="no"?>
<!DOCTYPE svg PUBLIC "-//W3C//DTD SVG 20010904//EN"
 "http://www.w3.org/TR/2001/REC-SVG-20010904/DTD/svg10.dtd">
<svg version="1.0" xmlns="http://www.w3.org/2000/svg"
 width="272.000000pt" height="272.000000pt" viewBox="0 0 272.000000 272.000000"
 preserveAspectRatio="xMidYMid meet">
<metadata>
Created by potrace 1.11, written by Peter Selinger 2001-2013
</metadata>
<g transform="translate(0.000000,272.000000) scale(0.100000,-0.100000)"
fill="#000000" stroke="none">
<path d="M231 1688 c-188 -513 -197 -544 -143 -541 47 2 52 3 52 14 0 6 19 62
42 125 42 117 46 121 98 114 29 -4 29 -16 -2 -100 -50 -138 -48 -153 14 -155
24 -1 30 5 43 40 147 403 156 431 150 462 -6 32 -43 69 -56 55 -4 -4 -23 -53
-44 -109 l-37 -103 -39 0 c-21 0 -39 5 -39 11 0 6 8 39 17 74 19 71 11 104
-27 125 -17 9 -21 7 -29 -12z"/>
<path d="M871 1667 c-10 -23 -28 -73 -41 -110 -23 -65 -26 -68 -55 -67 -54 3
-55 2 -38 -32 9 -18 20 -41 25 -50 5 -11 -6 -54 -31 -126 -22 -60 -36 -114
-32 -120 10 -17 59 -22 74 -7 8 7 31 62 51 121 21 60 41 112 45 116 4 5 21 10
39 12 33 4 82 31 82 45 0 5 3 16 6 25 5 13 -2 16 -40 16 -25 0 -46 4 -46 9 0
5 7 28 15 51 24 68 25 91 8 121 -27 45 -42 44 -62 -4z"/>
<path d="M2651 1553 c3 -20 -2 -24 -16 -13 -10 9 -15 9 -15 1 0 -6 5 -11 11
-11 8 0 8 -4 0 -14 -9 -10 -9 -16 -1 -21 6 -4 14 -4 17 -1 4 3 0 6 -7 6 -9 0
-7 6 6 19 10 10 24 16 29 13 6 -3 4 2 -4 11 -14 18 -22 22 -20 10z"/>
<path d="M550 1492 c-54 -4 -77 -21 -98 -71 -33 -75 -62 -169 -62 -196 0 -29
40 -74 67 -76 126 -9 172 2 194 42 6 12 26 64 44 116 35 100 34 134 -2 164
-17 15 -91 25 -143 21z m66 -106 c7 -19 -26 -116 -47 -137 -10 -10 -26 -16
-36 -14 -10 2 -21 4 -24 4 -17 2 -17 36 0 79 10 26 21 55 24 65 8 21 75 24 83
3z"/>
<path d="M1346 1493 c-2 -2 -69 -4 -149 -4 -175 1 -183 -3 -221 -114 -13 -38
-53 -150 -89 -248 -50 -139 -62 -180 -51 -184 17 -6 54 3 75 20 9 7 46 96 83
197 86 240 84 235 126 235 48 0 48 -16 5 -134 -20 -55 -34 -104 -31 -109 9
-15 63 -1 84 22 10 11 36 67 56 123 32 85 42 102 62 106 13 2 32 -1 41 -8 16
-12 15 -20 -19 -118 -19 -57 -33 -109 -29 -114 9 -14 54 -24 68 -15 6 4 28 52
48 107 20 55 40 107 44 115 12 23 2 73 -20 96 -18 19 -73 37 -83 27z"/>
<path d="M1880 1479 c-51 -24 -72 -52 -77 -106 -4 -42 -2 -51 21 -72 23 -21
37 -25 104 -27 97 -2 92 -1 92 -19 0 -17 6 -17 -130 -19 -62 -1 -114 -7 -128
-15 -22 -12 -46 -56 -38 -70 6 -8 284 -7 311 2 29 10 66 69 72 115 4 31 0 44
-19 66 -22 26 -29 28 -98 28 -79 1 -119 13 -102 30 5 5 55 10 112 12 95 2 103
3 120 26 21 27 32 60 22 61 -4 0 -56 1 -117 2 -82 2 -118 -2 -145 -14z"/>
<path d="M2374 1490 c-27 -5 -32 -14 -81 -145 -28 -77 -52 -152 -52 -166 -1
-33 12 -35 162 -33 98 1 110 4 133 25 14 13 24 32 22 44 -3 18 -11 20 -93 21
-49 1 -93 2 -97 3 -13 2 -9 23 18 93 28 73 24 71 110 70 54 -1 100 28 106 65
l4 28 -101 0 c-56 0 -114 -2 -131 -5z"/>
<path d="M1479 1373 c-49 -134 -52 -165 -16 -201 22 -22 35 -25 99 -27 116 -2
123 4 179 162 36 100 37 132 5 162 -24 23 -46 22 -46 -2 0 -7 -18 -59 -39
-117 -33 -89 -42 -105 -64 -111 -16 -4 -33 -2 -44 6 -17 12 -16 17 8 86 14 42
23 84 20 96 -7 25 -36 63 -49 63 -5 0 -29 -53 -53 -117z"/>
<path d="M2196 1423 c-54 -143 -86 -237 -86 -250 0 -7 11 -18 24 -23 48 -18
59 -6 104 123 23 67 42 132 42 143 0 22 -35 74 -50 74 -4 0 -20 -30 -34 -67z"/>
<path d="M1103 1063 c9 -2 23 -2 30 0 6 3 -1 5 -18 5 -16 0 -22 -2 -12 -5z"/>
<path d="M1166 1061 c-4 -5 3 -7 14 -4 23 6 26 13 6 13 -8 0 -17 -4 -20 -9z"/>
<path d="M1239 1053 c-13 -16 -12 -17 3 -4 10 7 25 11 33 7 9 -3 13 -2 10 4
-10 15 -31 12 -46 -7z"/>
<path d="M1323 1042 c-1 -22 0 -23 6 -8 7 18 8 18 24 -5 l17 -23 0 23 c0 14
-3 21 -7 18 -3 -4 -14 0 -23 8 -14 13 -16 11 -17 -13z"/>
<path d="M1410 1055 c-11 -13 -11 -19 3 -32 21 -21 49 -9 45 19 -4 28 -30 35
-48 13z m40 -15 c0 -11 -6 -20 -14 -20 -18 0 -29 16 -21 30 11 18 35 11 35
-10z"/>
<path d="M1566 1061 c-3 -4 6 -6 19 -3 14 2 25 6 25 8 0 8 -39 4 -44 -5z"/>
<path d="M1670 1066 c0 -2 7 -6 15 -10 8 -3 15 -1 15 4 0 6 -7 10 -15 10 -8 0
-15 -2 -15 -4z"/>
<path d="M1782 1044 c-7 -14 -10 -29 -8 -32 3 -3 9 6 14 18 l9 24 6 -24 c3
-13 9 -21 12 -18 4 3 0 18 -7 33 l-14 26 -12 -27z"/>
<path d="M1908 1063 c6 -2 18 -2 25 0 6 3 1 5 -13 5 -14 0 -19 -2 -12 -5z"/>
<path d="M1977 1051 c-3 -11 -1 -23 3 -26 14 -8 22 13 12 31 -8 14 -10 14 -15
-5z"/>
<path d="M2011 1044 c-6 -15 -9 -29 -6 -32 3 -4 8 4 12 16 3 12 9 19 14 16 5
-3 6 2 3 10 -8 21 -9 20 -23 -10z"/>
<path d="M2116 1054 c-3 -9 -1 -23 4 -32 9 -14 10 -12 4 7 -4 16 -3 21 5 17 7
-5 9 -1 5 8 -8 20 -10 20 -18 0z"/>
<path d="M2156 1038 c-17 -33 -17 -33 2 -11 11 12 23 19 26 15 4 -3 4 1 0 11
-3 9 -7 17 -8 17 -1 0 -10 -15 -20 -32z"/>
<path d="M2213 1055 c0 -8 4 -12 9 -9 5 3 6 10 3 15 -9 13 -12 11 -12 -6z"/>
<path d="M2251 1054 c0 -11 3 -14 6 -6 3 7 2 16 -1 19 -3 4 -6 -2 -5 -13z"/>
<path d="M2295 1061 c-3 -5 0 -13 6 -17 7 -4 9 -3 5 4 -3 6 3 12 16 15 23 4
23 4 1 6 -12 0 -24 -3 -28 -8z"/>
<path d="M2427 1063 c-3 -5 5 -8 18 -8 13 0 21 3 18 8 -2 4 -10 7 -18 7 -8 0
-16 -3 -18 -7z"/>
<path d="M2517 1056 c-4 -10 -3 -15 3 -11 6 3 10 1 10 -4 0 -6 -7 -11 -15 -11
-8 0 -15 -3 -15 -7 0 -5 11 -8 25 -8 29 0 29 1 11 34 -11 20 -14 21 -19 7z"/>
<path d="M1614 1041 c4 -7 -2 -15 -16 -20 -15 -7 -17 -10 -7 -10 23 -1 44 25
28 35 -8 4 -9 3 -5 -5z"/>
<path d="M1900 1039 c0 -5 9 -9 20 -9 11 0 20 2 20 4 0 2 -9 6 -20 9 -11 3
-20 1 -20 -4z"/>
<path d="M2323 1038 c3 -9 1 -19 -6 -22 -7 -2 -4 -5 6 -5 20 -1 21 7 6 29 -9
13 -10 13 -6 -2z"/>
<path d="M1165 1030 c-7 -12 19 -24 37 -17 7 3 2 6 -12 7 -23 1 -23 2 -5 10
16 7 17 9 3 9 -9 1 -20 -4 -23 -9z"/>
<path d="M1280 1031 c0 -8 -8 -11 -20 -8 -11 3 -18 1 -14 -4 3 -5 11 -9 19 -9
16 0 30 18 21 27 -3 4 -6 1 -6 -6z"/>
<path d="M1688 1033 c7 -3 16 -2 19 1 4 3 -2 6 -13 5 -11 0 -14 -3 -6 -6z"/>
<path d="M2422 1025 c18 -19 48 -14 48 7 0 9 -3 8 -10 -2 -8 -13 -13 -13 -32
-1 -22 12 -22 12 -6 -4z"/>
<path d="M1498 1018 c5 -5 16 -8 23 -6 8 3 3 7 -10 11 -17 4 -21 3 -13 -5z"/>
<path d="M1658 1018 c6 -6 18 -8 28 -6 14 3 12 5 -9 10 -19 3 -25 2 -19 -4z"/>
<path d="M2217 1018 c2 -5 13 -8 24 -8 10 0 19 3 19 8 0 4 -11 7 -24 7 -13 0
-22 -3 -19 -7z"/>
<path d="M1918 1013 c7 -3 16 -2 19 1 4 3 -2 6 -13 5 -11 0 -14 -3 -6 -6z"/>
</g>
</svg>
