<svg version="1.1" xmlns="http://www.w3.org/2000/svg" xmlns:xlink="http://www.w3.org/1999/xlink" x="0px" y="0px"
	 viewBox="0 0 512.01 512.01" style="enable-background:new 0 0 512.01 512.01;" xml:space="preserve" width="41px" height="43px">
	<g>
		<path d="M488.422,225.266c-5.514-41.862-22.061-80.206-46.68-112.135c6.896-12.203,5.667-27.768-4.716-38.151
			c-10.366-10.384-25.951-11.612-38.148-4.715c-31.93-24.62-70.275-41.167-112.138-46.681C283.017,10.036,270.72,0,256.005,0
			s-27.012,10.036-30.734,23.583c-41.863,5.514-80.208,22.061-112.138,46.681c-12.198-6.897-27.783-5.669-38.148,4.715
			c-10.383,10.383-11.612,25.948-4.716,38.151c-24.618,31.93-41.165,70.273-46.68,112.135C10.042,228.988,0.005,241.285,0.005,256
			c0,14.715,10.036,27.012,23.583,30.734c5.514,41.862,22.061,80.206,46.68,112.135c-6.896,12.203-5.667,27.768,4.716,38.151
			c5.949,5.958,13.723,8.875,21.54,9.143c-1.698,4.199-3.284,8.081-5.02,12.388l-3.708,9.146
			c-6.771,16.292,0.958,35.052,17.229,41.833c3.938,1.635,8.063,2.469,12.292,2.469c12.979,0,24.583-7.729,29.583-19.708
			c0.77-1.853,3.854-11.089,8.26-24.721c21.758,10.415,45.298,17.578,70.109,20.846C228.993,501.964,241.29,512,256.005,512
			s27.012-10.036,30.734-23.583c28.329-3.732,55.116-12.371,79.348-25.303c5.195,16.155,8.854,27.151,9.71,29.21
			c4.979,11.958,16.583,19.687,29.542,19.687c4.25,0,8.396-0.833,12.313-2.479c16.271-6.781,24-25.542,17.229-41.844l-3.792-9.333
			c-2.008-4.98-3.848-9.487-5.805-14.323c4.359-1.505,8.431-3.699,11.742-7.01c6.042-6.042,9.375-14.083,9.375-22.625
			c0-5.695-1.602-11.103-4.374-15.906c24.458-31.854,40.901-70.057,46.395-111.755c13.547-3.723,23.583-16.02,23.583-30.734
			C512.005,241.285,501.969,228.988,488.422,225.266z M400.142,382.422c-29.688-71.958-51.686-122.259-65.595-149.943
			c6.917-8.875,8.771-20.781,4.313-31.469c-4.063-9.729-18.875-31.083-36.438-31.083c-2.729,0-5.375,0.531-7.854,1.563
			c-18.375,7.646-20.604,40.146-14.792,54.156c4,9.583,12.396,16.417,22.333,18.635c9.408,41.475,32.823,119.559,50.805,177.189
			c-28.487,16.75-61.54,26.53-96.909,26.53c-31.654,0-61.465-7.832-87.814-21.456c18.155-58.003,42.695-139.546,52.376-182.263
			c9.958-2.229,18.333-9.063,22.333-18.656c5.813-14,3.563-46.49-14.792-54.135c-2.479-1.031-5.125-1.563-7.854-1.563
			c-17.563,0-32.375,21.354-36.458,31.094c-4.438,10.677-2.563,22.583,4.333,31.448c-14.414,28.699-37.6,81.891-68.918,158.031
			C85.117,355.828,64.005,308.35,64.005,256c0-105.865,86.125-192,192-192s192,86.135,192,192
			C448.005,304.432,429.839,348.607,400.142,382.422z"/>
	</g>
</svg>
